<?xml version="1.0" encoding="UTF-8" standalone="no"?>
<!-- Created with Inkscape (http://www.inkscape.org/) -->

<svg
   xmlns:dc="http://purl.org/dc/elements/1.1/"
   xmlns:cc="http://creativecommons.org/ns#"
   xmlns:rdf="http://www.w3.org/1999/02/22-rdf-syntax-ns#"
   xmlns:svg="http://www.w3.org/2000/svg"
   xmlns="http://www.w3.org/2000/svg"
   xmlns:sodipodi="http://sodipodi.sourceforge.net/DTD/sodipodi-0.dtd"
   xmlns:inkscape="http://www.inkscape.org/namespaces/inkscape"
   width="224.21875"
   height="312.8125"
   id="svg4423"
   version="1.1"
   inkscape:version="0.48.4 r9939"
   sodipodi:docname="3C.svg">
  <defs
     id="defs4425" />
  <sodipodi:namedview
     id="base"
     pagecolor="#ffffff"
     bordercolor="#666666"
     borderopacity="1.0"
     inkscape:pageopacity="0.0"
     inkscape:pageshadow="2"
     inkscape:zoom="1.4"
     inkscape:cx="96.80908"
     inkscape:cy="109.63066"
     inkscape:document-units="px"
     inkscape:current-layer="g6673"
     showgrid="false"
     inkscape:snap-global="true"
     inkscape:snap-bbox="true"
     inkscape:snap-page="true"
     inkscape:window-width="1875"
     inkscape:window-height="1056"
     inkscape:window-x="45"
     inkscape:window-y="24"
     inkscape:window-maximized="1"
     inkscape:bbox-paths="false"
     inkscape:bbox-nodes="false"
     inkscape:snap-bbox-edge-midpoints="false"
     inkscape:snap-center="true"
     inkscape:snap-object-midpoints="true"
     fit-margin-top="0"
     fit-margin-left="0"
     fit-margin-right="0"
     fit-margin-bottom="0" />
  <metadata
     id="metadata4428">
    <rdf:RDF>
      <cc:Work
         rdf:about="">
        <dc:format>image/svg+xml</dc:format>
        <dc:type
           rdf:resource="http://purl.org/dc/dcmitype/StillImage" />
        <dc:title />
      </cc:Work>
    </rdf:RDF>
  </metadata>
  <g
     inkscape:label="Layer 1"
     inkscape:groupmode="layer"
     id="layer1"
     transform="translate(-259.93165,-369.77411)">
    <g
       transform="translate(-1160.7685,92.135109)"
       style="display:inline"
       id="g3797">
      <g
         id="g6673">
        <g
           id="g8353"
           style="stroke:#000000;stroke-opacity:1">
          <g
             id="g8890-2"
             style="stroke:#000000;stroke-opacity:1;display:inline"
             transform="translate(-5059.9561,3024.9515)">
            <rect
               ry="10.629921"
               rx="10.629921"
               style="fill:#ffffff;fill-opacity:1;stroke:#000000;stroke-width:0.99673343;stroke-miterlimit:4;stroke-opacity:1;stroke-dasharray:none;display:inline"
               id="rect6351-1"
               width="223.22835"
               height="311.81104"
               x="6481.1577"
               y="-2746.811" />
            <g
               id="g8582-6"
               transform="matrix(0.30106207,0,0,0.30106207,5635.595,-1948.9541)"
               style="stroke:#000000;stroke-opacity:1" />
          </g>
        </g>
        <g
           id="g6664"
           transform="matrix(1.0120133,0,0,1.0120133,-18.712175,-5.2142811)">
          <path
             transform="matrix(0.30106207,0,0,0.30106207,575.6389,1075.9974)"
             sodipodi:nodetypes="ccccscccccccccccscc"
             inkscape:connector-curvature="0"
             id="path7102-8"
             d="m 2836.6637,-2519.8906 8.4607,-6.1116 c 7.3538,11.7376 15.5625,19.4745 28.1181,18.1437 18.8453,-1.2674 26.6487,-20.6606 22.7039,-35.2849 -3.8092,-13.103 -19.417,-19.4954 -31.8153,-12.4982 -2.9236,1.65 -6.3052,3.6875 -6.3052,3.6875 l -4.4137,-7.1942 29.1094,-33.8631 -31.5895,0 0,14.0158 -12.1218,0 0,-25.1275 61.7456,0 0,8.5286 c 0,0 -16.5384,16.8366 -22.0128,26.0657 13.4691,0.4898 24.3232,8.8645 28.2078,22.1159 2.2798,6.97 1.255,22.9224 -1.7164,29.7878 -4.9614,11.4634 -18.5478,20.7594 -30.9625,21.2965 -20.8281,1.3757 -31.8931,-12.9608 -37.4083,-23.562 z"
             style="fill:#000000;fill-opacity:1;display:inline" />
          <path
             transform="matrix(0.30106207,0,0,0.30106207,575.6389,1075.9974)"
             style="fill:#000000;fill-opacity:1;display:inline"
             d="m 3522.0047,-1744.6882 -8.4607,6.1116 c -7.3538,-11.7376 -15.5625,-19.4745 -28.1181,-18.1437 -18.8453,1.2674 -26.6487,20.6606 -22.7039,35.2849 3.8092,13.103 19.417,19.4954 31.8153,12.4982 2.9236,-1.65 6.3052,-3.375 6.3052,-3.375 l 5.2262,6.7567 -29.9219,33.9881 31.5895,0 0,-14.0158 12.1218,0 0,25.1275 -61.7456,0 0,-8.5286 c 0,0 16.5384,-16.8366 22.0128,-26.0657 -13.4691,-0.4898 -24.3232,-8.8645 -28.2078,-22.1159 -2.2798,-6.97 -1.255,-22.9224 1.7164,-29.7878 4.9614,-11.4634 18.5478,-20.7594 30.9625,-21.2965 20.8281,-1.3757 31.8931,12.9608 37.4083,23.562 z"
             id="path7118-5"
             inkscape:connector-curvature="0"
             sodipodi:nodetypes="ccccscccccccccccscc" />
          <path
             style="fill:#000000;fill-opacity:1;display:inline"
             d="m 1525.4649,462.61656 c 2.879,-5.77557 4.9759,-11.701 5.3481,-18.03733 0.3416,-2.33169 -1.0746,-2.37079 -1.2881,-0.7286 -4.0764,15.59279 -25.7627,11.37043 -25.0171,-3.29651 0.605,-11.89477 12.4195,-14.45376 18.5823,-10.56451 2.4336,1.43278 2.2961,0.5746 0.9679,-0.91177 -9.1548,-10.21145 -3.6101,-23.36174 8.7612,-23.60244 13.3796,0.79343 16.8512,14.86989 8.6442,23.14833 -1.0206,0.99462 -3.2835,4.19134 0.123,1.9563 8.2868,-5.888 19.7873,0.44285 19.5527,9.52075 -0.4327,16.73889 -20.8391,17.98729 -25.2032,4.00577 -0.4198,-1.55017 -1.6291,-2.32865 -1.295,0.30427 0.6049,4.76663 1.8565,11.95343 5.4374,18.20574 z"
             id="path3255"
             inkscape:connector-curvature="0"
             sodipodi:nodetypes="cccscccccscscc" />
          <path
             sodipodi:nodetypes="cccscccccscscc"
             inkscape:connector-curvature="0"
             id="path3257"
             d="m 1525.4014,364.19473 c 2.879,-5.77557 4.9759,-11.701 5.3481,-18.03733 0.3416,-2.33169 -1.0746,-2.37079 -1.2881,-0.7286 -4.0764,15.59279 -25.7627,11.37043 -25.0171,-3.29651 0.605,-11.89477 12.4195,-14.45376 18.5823,-10.56451 2.4336,1.43278 2.2961,0.5746 0.9679,-0.91177 -9.1548,-10.21145 -3.6101,-23.36174 8.7612,-23.60244 13.3796,0.79343 16.8512,14.86989 8.6442,23.14833 -1.0206,0.99462 -3.2835,4.19134 0.123,1.9563 8.2868,-5.888 19.7873,0.44285 19.5527,9.52075 -0.4327,16.73889 -20.8391,17.98729 -25.2032,4.00577 -0.4198,-1.55017 -1.6291,-2.32865 -1.295,0.30427 0.6049,4.76663 1.8565,11.95343 5.4374,18.20574 z"
             style="fill:#000000;fill-opacity:1;display:inline" />
          <path
             style="fill:#000000;fill-opacity:1;display:inline"
             d="m 1540.1034,504.15659 c -2.879,5.77549 -4.9759,11.70099 -5.3481,18.03729 -0.3416,2.3317 1.0746,2.3708 1.2881,0.7286 4.0764,-15.59279 25.7627,-11.3704 25.0171,3.2965 -0.605,11.8948 -12.4195,14.4538 -18.5823,10.5645 -2.4336,-1.4328 -2.2961,-0.5746 -0.9679,0.9118 9.1548,10.2114 3.6101,23.36173 -8.7612,23.60243 -13.3796,-0.79343 -16.8512,-14.86993 -8.6442,-23.14833 1.0206,-0.9946 3.2835,-4.1913 -0.123,-1.9563 -8.2868,5.888 -19.7873,-0.4428 -19.5527,-9.5207 0.4327,-16.7389 20.8391,-17.98729 25.2032,-4.0058 0.4198,1.5502 1.6291,2.3286 1.295,-0.3043 -0.6049,-4.7666 -1.8565,-11.9534 -5.4374,-18.20569 z"
             id="path3405"
             inkscape:connector-curvature="0"
             sodipodi:nodetypes="cccscccccscscc" />
          <path
             sodipodi:nodetypes="cccscsccssscccsccccc"
             inkscape:connector-curvature="0"
             id="path3456"
             d="m 1435.5722,353.2321 c 1.1921,-2.44508 2.3522,-4.72078 2.9843,-7.40087 0.4192,-2.52757 -0.4383,-1.58853 -0.9252,0.0682 -0.7212,2.29741 -2.7226,3.34375 -4.58,3.36887 -3.3711,0.0455 -5.0527,-2.60423 -4.9479,-5.45389 -0.3681,-2.99859 2.671,-5.12018 4.9617,-4.95674 1.7223,0.1229 3.224,1.05205 4.1329,1.77512 0.5963,0.3153 1.234,0.45461 0.3449,-0.35848 -1.6776,-1.83293 -3.0766,-2.96415 -3.046,-5.71082 0.029,-2.5787 2.2335,-5.26813 5.1554,-5.18375 3.6515,0.10546 5.312,2.8901 5.3033,5.48052 -0.01,1.88834 -0.9536,3.62629 -2.4114,4.70267 -0.9442,0.76609 -0.6794,1.33981 0.3977,0.61483 1.0349,-0.89201 2.2671,-1.28257 3.5448,-1.30996 3.4905,-0.0547 4.855,2.96148 4.6551,5.76418 -0.1874,2.62571 -2.4228,5.3284 -5.369,5.02231 -2.6307,-0.3015 -4.013,-2.50991 -4.8051,-4.77687 -0.2623,-0.69509 -0.676,-0.88281 -0.6645,0.15307 0.6077,5.05743 2.4916,8.20444 2.5053,8.20156 z"
             style="fill:#000000;fill-opacity:1;display:inline" />
          <path
             sodipodi:nodetypes="cccscsccssscccsccccc"
             inkscape:connector-curvature="0"
             id="path3484"
             d="m 1630.6483,515.58965 c -1.1921,2.44508 -2.3522,4.72078 -2.9843,7.40087 -0.4192,2.52757 0.4383,1.58853 0.9252,-0.0682 0.7212,-2.29741 2.7226,-3.34375 4.58,-3.36887 3.3711,-0.0455 5.0527,2.60423 4.9479,5.45389 0.3681,2.99859 -2.671,5.12018 -4.9617,4.95674 -1.7223,-0.1229 -3.224,-1.05205 -4.1329,-1.77512 -0.5963,-0.3153 -1.234,-0.45461 -0.3449,0.35848 1.6776,1.83293 3.0766,2.96415 3.046,5.71082 -0.029,2.5787 -2.2335,5.26813 -5.1554,5.18375 -3.6515,-0.10546 -5.312,-2.8901 -5.3033,-5.48052 0.01,-1.88834 0.9536,-3.62629 2.4114,-4.70267 0.9442,-0.76609 0.6794,-1.33981 -0.3977,-0.61483 -1.0349,0.89201 -2.2671,1.28257 -3.5448,1.30996 -3.4905,0.0547 -4.855,-2.96148 -4.6551,-5.76418 0.1874,-2.62571 2.4228,-5.3284 5.369,-5.02231 2.6307,0.3015 4.013,2.50991 4.8051,4.77687 0.2623,0.69509 0.676,0.88281 0.6645,-0.15307 -0.6077,-5.05743 -2.4916,-8.20444 -2.5053,-8.20156 z"
             style="fill:#000000;fill-opacity:1;display:inline" />
        </g>
      </g>
    </g>
  </g>
</svg>
